#FIG 3.2
Portrait
Center
Inches
Letter  
100.00
Single
-2
1200 2
6 7650 4125 8700 5250
6 7664 4161 8696 4807
6 7664 4562 8694 4807
6 8232 4562 8403 4772
1 3 0 1 0 0 50 0 20 0.000 1 1.5708 8317 4581 16 16 8317 4581 8317 4565
2 3 0 1 0 7 50 0 -1 0.000 0 0 7 0 0 5
	 8403 4600 8232 4600 8232 4772 8403 4772 8403 4600
-6
6 8523 4562 8694 4772
1 3 0 1 0 0 50 0 20 0.000 1 1.5708 8608 4581 16 16 8608 4581 8608 4565
2 3 0 1 0 7 50 0 -1 0.000 0 0 7 0 0 5
	 8694 4600 8523 4600 8523 4772 8694 4772 8694 4600
-6
6 7935 4599 8106 4807
1 3 0 1 0 0 50 0 20 0.000 1 4.7124 8021 4790 16 16 8021 4790 8021 4805
2 3 0 1 0 7 50 0 -1 0.000 0 0 7 0 0 5
	 7935 4770 8106 4770 8106 4599 7935 4599 7935 4770
-6
6 7664 4599 7835 4807
1 3 0 1 0 0 50 0 20 0.000 1 4.7124 7748 4790 16 16 7748 4790 7748 4805
2 3 0 1 0 7 50 0 -1 0.000 0 0 7 0 0 5
	 7664 4770 7835 4770 7835 4599 7664 4599 7664 4770
-6
-6
6 7665 4161 8696 4410
6 8233 4161 8405 4374
1 3 0 1 0 0 50 0 20 0.000 1 1.5708 8319 4183 16 16 8319 4183 8319 4167
2 3 0 1 0 7 50 0 -1 0.000 0 0 7 0 0 5
	 8405 4203 8233 4203 8233 4374 8405 4374 8405 4203
-6
6 8524 4161 8696 4374
1 3 0 1 0 0 50 0 20 0.000 1 1.5708 8611 4183 16 16 8611 4183 8611 4167
2 3 0 1 0 7 50 0 -1 0.000 0 0 7 0 0 5
	 8696 4203 8524 4203 8524 4374 8696 4374 8696 4203
-6
6 7937 4201 8108 4410
1 3 0 1 0 0 50 0 20 0.000 1 4.7124 8022 4392 16 16 8022 4392 8022 4407
2 3 0 1 0 7 50 0 -1 0.000 0 0 7 0 0 5
	 7937 4372 8108 4372 8108 4201 7937 4201 7937 4372
-6
6 7665 4201 7836 4410
1 3 0 1 0 0 50 0 20 0.000 1 4.7124 7751 4392 16 16 7751 4392 7751 4407
2 3 0 1 0 7 50 0 -1 0.000 0 0 7 0 0 5
	 7665 4372 7836 4372 7836 4201 7665 4201 7665 4372
-6
-6
-6
6 7687 4875 8662 5250
4 0 0 50 -1 -1 9 0.0000 4 90 960 7694 5022 Two-Faced Lines\001
4 0 0 50 -1 -1 9 0.0000 4 120 300 8024 5157 (L-H)\001
-6
-6
6 6000 4200 7125 5175
6 6049 4234 7092 4798
6 6340 4234 6511 4443
1 3 0 1 0 0 50 0 20 0.000 1 4.7124 6425 4425 16 16 6425 4425 6425 4440
2 3 0 1 0 7 50 0 -1 0.000 0 0 7 0 0 5
	 6340 4406 6511 4406 6511 4234 6340 4234 6340 4406
-6
6 6049 4234 6220 4443
1 3 0 1 0 0 50 0 20 0.000 1 4.7124 6134 4425 16 16 6134 4425 6134 4440
2 3 0 1 0 7 50 0 -1 0.000 0 0 7 0 0 5
	 6049 4406 6220 4406 6220 4234 6049 4234 6049 4406
-6
6 6630 4588 6801 4798
1 3 0 1 0 0 50 0 20 0.000 1 1.5708 6715 4607 16 16 6715 4607 6715 4591
2 3 0 1 0 7 50 0 -1 0.000 0 0 7 0 0 5
	 6801 4626 6630 4626 6630 4798 6801 4798 6801 4626
-6
6 6631 4234 6802 4443
1 3 0 1 0 0 50 0 20 0.000 1 4.7124 6716 4425 16 16 6716 4425 6716 4440
2 3 0 1 0 7 50 0 -1 0.000 0 0 7 0 0 5
	 6631 4406 6802 4406 6802 4234 6631 4234 6631 4406
-6
6 6921 4588 7092 4798
1 3 0 1 0 0 50 0 20 0.000 1 1.5708 7006 4607 16 16 7006 4607 7006 4591
2 3 0 1 0 7 50 0 -1 0.000 0 0 7 0 0 5
	 7092 4626 6921 4626 6921 4798 7092 4798 7092 4626
-6
6 6912 4234 7083 4443
1 3 0 1 0 0 50 0 20 0.000 1 4.7124 6997 4425 16 16 6997 4425 6997 4440
2 3 0 1 0 7 50 0 -1 0.000 0 0 7 0 0 5
	 6912 4406 7083 4406 7083 4234 6912 4234 6912 4406
-6
6 6057 4588 6230 4798
1 3 0 1 0 0 50 0 20 0.000 1 1.5708 6144 4607 16 16 6144 4607 6144 4591
2 3 0 1 0 7 50 0 -1 0.000 0 0 7 0 0 5
	 6230 4626 6057 4626 6057 4798 6230 4798 6230 4626
-6
6 6339 4588 6510 4798
1 3 0 1 0 0 50 0 20 0.000 1 1.5708 6424 4607 16 16 6424 4607 6424 4591
2 3 0 1 0 7 50 0 -1 0.000 0 0 7 0 0 5
	 6510 4626 6339 4626 6339 4798 6510 4798 6510 4626
-6
-6
4 0 0 50 -1 -1 9 0.0000 4 120 735 6195 5100 Facing Lines\001
-6
6 1425 2775 2625 4125
6 1469 2812 2586 3901
6 1784 3672 2271 3901
6 1784 3672 1955 3901
1 3 0 1 0 0 50 0 20 0.000 1 1.5708 1869 3710 16 16 1869 3710 1869 3694
2 3 0 1 0 7 50 0 -1 0.000 0 0 7 0 0 5
	 1955 3728 1784 3728 1784 3901 1955 3901 1955 3728
-6
6 2070 3672 2271 3901
1 3 0 1 0 0 50 0 20 0.000 1 1.5708 2185 3710 16 16 2185 3710 2185 3694
1 3 0 1 0 7 50 0 -1 0.000 1 1.5708 2185 3820 95 95 2185 3820 2185 3724
-6
-6
6 1469 3127 1726 3614
6 1497 3127 1726 3298
1 3 0 1 0 0 50 0 20 0.000 1 0.0000 1688 3213 16 16 1688 3213 1704 3213
2 3 0 1 0 7 50 0 -1 0.000 0 0 7 0 0 5
	 1669 3298 1669 3127 1497 3127 1497 3298 1669 3298
-6
6 1469 3442 1726 3614
1 3 0 1 0 0 50 0 20 0.000 1 0.0000 1688 3528 16 16 1688 3528 1704 3528
1 3 0 1 0 7 50 0 -1 0.000 1 0.0000 1578 3528 95 95 1578 3528 1673 3528
-6
-6
6 2328 3127 2586 3614
6 2328 3442 2557 3614
1 3 0 1 0 0 50 0 20 0.000 1 3.1416 2366 3528 16 16 2366 3528 2350 3528
2 3 0 1 0 7 50 0 -1 0.000 0 0 7 0 0 5
	 2385 3442 2385 3614 2557 3614 2557 3442 2385 3442
-6
6 2328 3127 2586 3298
1 3 0 1 0 0 50 0 20 0.000 1 3.1416 2366 3213 16 16 2366 3213 2350 3213
1 3 0 1 0 7 50 0 -1 0.000 1 3.1416 2477 3213 95 95 2477 3213 2381 3213
-6
-6
6 1755 2812 2271 3070
6 2098 2840 2271 3070
1 3 0 1 0 0 50 0 20 0.000 1 4.7124 2185 3031 16 16 2185 3031 2185 3048
2 3 0 1 0 7 50 0 -1 0.000 0 0 7 0 0 5
	 2098 3012 2271 3012 2271 2840 2098 2840 2098 3012
-6
6 1755 2812 1955 3070
1 3 0 1 0 0 50 0 20 0.000 1 4.7124 1869 3031 16 16 1869 3031 1869 3048
1 3 0 1 0 7 50 0 -1 0.000 1 4.7124 1869 2921 95 95 1869 2921 1869 3016
-6
-6
-6
4 0 0 50 -1 -1 9 0.0000 4 120 675 1687 4079 Squared Set\001
-6
6 3000 2775 4200 4125
6 3037 2812 4162 3937
6 3093 2832 4123 3863
6 3359 2889 3559 3117
1 3 0 1 0 0 50 0 20 0.000 1 5.1051 3496 3097 16 16 3496 3097 3502 3112
1 3 0 1 0 7 50 0 -1 0.000 1 5.1051 3453 2995 95 95 3453 2995 3491 3083
-6
6 3674 3633 3874 3834
1 3 0 1 0 0 50 0 20 0.000 1 1.9635 3737 3654 16 16 3737 3654 3731 3639
1 3 0 1 0 7 50 0 -1 0.000 1 1.9635 3779 3756 95 95 3779 3756 3743 3667
-6
6 3874 3117 4103 3289
1 3 0 1 0 0 50 0 20 0.000 1 3.5343 3895 3256 16 16 3895 3256 3879 3260
1 3 0 1 0 7 50 0 -1 0.000 1 3.5343 3997 3212 95 95 3997 3212 3908 3249
-6
6 3101 3433 3331 3633
1 3 0 1 0 0 50 0 20 0.000 1 0.3927 3309 3496 16 16 3309 3496 3325 3490
1 3 0 1 0 7 50 0 -1 0.000 1 0.3927 3208 3538 95 95 3208 3538 3297 3501
-6
-6
6 3078 2893 4109 3924
6 3344 3639 3545 3867
1 3 0 1 0 0 50 0 20 0.000 0 1.1781 3482 3659 16 16 3482 3659 3487 3644
1 3 0 1 0 7 50 0 -1 0.000 0 1.1781 3439 3761 95 95 3439 3761 3476 3673
-6
6 3659 2922 3859 3123
1 3 0 1 0 0 50 0 20 0.000 0 4.3197 3723 3102 16 16 3723 3102 3716 3117
1 3 0 1 0 7 50 0 -1 0.000 0 4.3197 3765 3000 95 95 3765 3000 3728 3089
-6
6 3859 3467 4089 3639
1 3 0 1 0 0 50 0 20 0.000 0 2.7489 3880 3500 16 16 3880 3500 3865 3496
1 3 0 1 0 7 50 0 -1 0.000 0 2.7489 3982 3544 95 95 3982 3544 3893 3507
-6
6 3086 3123 3316 3323
1 3 0 1 0 0 50 0 20 0.000 0 5.8905 3295 3260 16 16 3295 3260 3310 3266
1 3 0 1 0 7 50 0 -1 0.000 0 5.8905 3193 3218 95 95 3193 3218 3282 3255
-6
-6
-6
4 0 0 50 -1 -1 9 0.0000 4 90 600 3225 4079 Circle of 8\001
-6
6 4500 2625 5810 3935
6 4511 3171 5027 3429
6 4855 3201 5027 3429
1 3 0 1 0 0 50 0 20 0.000 1 4.7124 4940 3391 16 16 4940 3391 4940 3407
2 3 0 1 0 7 50 0 -1 0.000 0 0 7 0 0 5
	 4855 3372 5027 3372 5027 3201 4855 3201 4855 3372
-6
6 4511 3171 4711 3429
1 3 0 1 0 0 50 0 20 0.000 1 4.7124 4625 3391 16 16 4625 3391 4625 3407
1 3 0 1 0 7 50 0 -1 0.000 1 4.7124 4625 3281 95 95 4625 3281 4625 3376
-6
-6
6 5027 2656 5285 3142
6 5027 2971 5256 3142
1 3 0 1 0 0 50 0 20 0.000 1 3.1416 5065 3057 16 16 5065 3057 5049 3057
2 3 0 1 0 7 50 0 -1 0.000 0 0 7 0 0 5
	 5083 2971 5083 3142 5256 3142 5256 2971 5083 2971
-6
6 5027 2656 5285 2827
1 3 0 1 0 0 50 0 20 0.000 1 3.1416 5065 2742 16 16 5065 2742 5049 2742
1 3 0 1 0 7 50 0 -1 0.000 1 3.1416 5175 2742 95 95 5175 2742 5079 2742
-6
-6
6 5055 3429 5313 3917
6 5083 3429 5313 3602
1 3 0 1 0 0 50 0 20 0.000 1 0.0000 5275 3515 16 16 5275 3515 5291 3515
2 3 0 1 0 7 50 0 -1 0.000 0 0 7 0 0 5
	 5256 3602 5256 3429 5083 3429 5083 3602 5256 3602
-6
6 5055 3745 5313 3917
1 3 0 1 0 0 50 0 20 0.000 1 0.0000 5275 3830 16 16 5275 3830 5291 3830
1 3 0 1 0 7 50 0 -1 0.000 1 0.0000 5164 3830 95 95 5164 3830 5260 3830
-6
-6
6 5313 3142 5799 3372
6 5313 3142 5485 3372
1 3 0 1 0 0 50 0 20 0.000 1 1.5708 5399 3181 16 16 5399 3181 5399 3165
2 3 0 1 0 7 50 0 -1 0.000 0 0 7 0 0 5
	 5485 3201 5313 3201 5313 3372 5485 3372 5485 3201
-6
6 5600 3142 5799 3372
1 3 0 1 0 0 50 0 20 0.000 1 1.5708 5715 3181 16 16 5715 3181 5715 3165
1 3 0 1 0 7 50 0 -1 0.000 1 1.5708 5715 3292 95 95 5715 3292 5715 3196
-6
-6
-6
6 5700 8925 6143 10122
6 5700 9585 6143 10122
6 5700 9911 6143 10122
6 5700 9911 5872 10120
1 3 0 1 0 0 50 0 20 0.000 0 4.7124 5786 10103 16 16 5786 10103 5786 10118
2 3 0 1 0 7 50 0 -1 0.000 0 0 7 0 0 5
	 5872 10083 5700 10083 5700 9911 5872 9911 5872 10083
-6
6 5971 9914 6143 10122
1 3 0 1 0 0 50 0 20 0.000 0 4.7124 6057 10105 16 16 6057 10105 6057 10121
2 3 0 1 0 7 50 0 -1 0.000 0 0 7 0 0 5
	 6143 10086 5971 10086 5971 9914 6143 9914 6143 10086
-6
-6
6 5700 9585 6143 9796
6 5700 9585 5872 9793
1 3 0 1 0 0 50 0 20 0.000 0 4.7124 5786 9776 16 16 5786 9776 5786 9792
2 3 0 1 0 7 50 0 -1 0.000 0 0 7 0 0 5
	 5872 9757 5700 9757 5700 9585 5872 9585 5872 9757
-6
6 5971 9587 6143 9796
1 3 0 1 0 0 50 0 20 0.000 0 4.7124 6057 9779 16 16 6057 9779 6057 9794
2 3 0 1 0 7 50 0 -1 0.000 0 0 7 0 0 5
	 6143 9759 5971 9759 5971 9587 6143 9587 6143 9759
-6
-6
-6
6 5700 8925 6143 9463
6 5700 8925 6143 9136
6 5700 8927 5872 9136
1 3 0 1 0 0 50 0 20 0.000 1 1.5708 5786 8944 16 16 5786 8944 5786 8929
2 3 0 1 0 7 50 0 -1 0.000 0 0 7 0 0 5
	 5872 8964 5700 8964 5700 9136 5872 9136 5872 8964
-6
6 5971 8925 6143 9134
1 3 0 1 0 0 50 0 20 0.000 1 1.5708 6057 8942 16 16 6057 8942 6057 8927
2 3 0 1 0 7 50 0 -1 0.000 0 0 7 0 0 5
	 6143 8961 5971 8961 5971 9134 6143 9134 6143 8961
-6
-6
6 5700 9252 6143 9463
6 5700 9254 5872 9463
1 3 0 1 0 0 50 0 20 0.000 1 1.5708 5786 9271 16 16 5786 9271 5786 9256
2 3 0 1 0 7 50 0 -1 0.000 0 0 7 0 0 5
	 5872 9290 5700 9290 5700 9463 5872 9463 5872 9290
-6
6 5971 9252 6143 9460
1 3 0 1 0 0 50 0 20 0.000 1 1.5708 6057 9269 16 16 6057 9269 6057 9253
2 3 0 1 0 7 50 0 -1 0.000 0 0 7 0 0 5
	 6143 9288 5971 9288 5971 9460 6143 9460 6143 9288
-6
-6
-6
-6
6 2437 8925 3562 10275
6 2511 8964 3535 9829
6 2511 9260 3535 9505
6 2798 9297 2970 9505
1 3 0 1 0 0 50 0 20 0.000 1 4.7124 2884 9488 16 16 2884 9488 2884 9504
2 3 0 1 0 7 50 0 -1 0.000 0 0 7 0 0 5
	 2798 9468 2970 9468 2970 9297 2798 9297 2798 9468
-6
6 3095 9262 3266 9471
1 3 0 1 0 0 50 0 20 0.000 1 1.5708 3182 9279 16 16 3182 9279 3182 9264
2 3 0 1 0 7 50 0 -1 0.000 0 0 7 0 0 5
	 3266 9298 3095 9298 3095 9471 3266 9471 3266 9298
-6
6 2511 9260 2682 9469
1 3 0 1 0 0 50 0 20 0.000 1 1.5708 2596 9278 16 16 2596 9278 2596 9262
2 3 0 1 0 7 50 0 -1 0.000 0 0 7 0 0 5
	 2682 9298 2511 9298 2511 9469 2682 9469 2682 9298
-6
6 3363 9293 3535 9501
1 3 0 1 0 0 50 0 20 0.000 1 4.7124 3448 9484 16 16 3448 9484 3448 9500
2 3 0 1 0 7 50 0 -1 0.000 0 0 7 0 0 5
	 3363 9464 3535 9464 3535 9293 3363 9293 3363 9464
-6
-6
6 2806 8964 3258 9172
6 2806 8964 2978 9172
1 3 0 1 0 0 50 0 20 0.000 0 4.7124 2892 9154 16 16 2892 9154 2892 9171
2 3 0 1 0 7 50 0 -1 0.000 0 0 7 0 0 5
	 2978 9135 2806 9135 2806 8964 2978 8964 2978 9135
-6
6 3087 8964 3258 9172
1 3 0 1 0 0 50 0 20 0.000 0 4.7124 3173 9154 16 16 3173 9154 3173 9171
2 3 0 1 0 7 50 0 -1 0.000 0 0 7 0 0 5
	 3258 9135 3087 9135 3087 8964 3258 8964 3258 9135
-6
-6
6 2798 9621 3251 9829
6 2798 9621 2971 9829
1 3 0 1 0 0 50 0 20 0.000 1 1.5708 2885 9639 16 16 2885 9639 2885 9623
2 3 0 1 0 7 50 0 -1 0.000 0 0 7 0 0 5
	 2971 9658 2798 9658 2798 9829 2971 9829 2971 9658
-6
6 3080 9621 3251 9829
1 3 0 1 0 0 50 0 20 0.000 1 1.5708 3165 9639 16 16 3165 9639 3165 9623
2 3 0 1 0 7 50 0 -1 0.000 0 0 7 0 0 5
	 3251 9658 3080 9658 3080 9829 3251 9829 3251 9658
-6
-6
-6
4 0 0 50 -1 -1 9 0.0000 4 120 780 2647 10205 1/4 Tag (R-H)\001
-6
6 4049 8925 5174 10275
6 4119 8938 5144 9880
6 4119 9281 5144 9526
6 4407 9318 4579 9526
1 3 0 1 0 0 50 0 20 0.000 1 4.7124 4493 9509 16 16 4493 9509 4493 9525
2 3 0 1 0 7 50 0 -1 0.000 0 0 7 0 0 5
	 4407 9489 4579 9489 4579 9318 4407 9318 4407 9489
-6
6 4704 9283 4875 9492
1 3 0 1 0 0 50 0 20 0.000 1 1.5708 4790 9300 16 16 4790 9300 4790 9285
2 3 0 1 0 7 50 0 -1 0.000 0 0 7 0 0 5
	 4875 9319 4704 9319 4704 9492 4875 9492 4875 9319
-6
6 4119 9281 4291 9490
1 3 0 1 0 0 50 0 20 0.000 1 1.5708 4205 9299 16 16 4205 9299 4205 9283
2 3 0 1 0 7 50 0 -1 0.000 0 0 7 0 0 5
	 4291 9319 4119 9319 4119 9490 4291 9490 4291 9319
-6
6 4972 9314 5144 9522
1 3 0 1 0 0 50 0 20 0.000 1 4.7124 5057 9505 16 16 5057 9505 5057 9521
2 3 0 1 0 7 50 0 -1 0.000 0 0 7 0 0 5
	 4972 9485 5144 9485 5144 9314 4972 9314 4972 9485
-6
-6
6 4407 9672 4860 9880
6 4407 9672 4579 9880
1 3 0 1 0 0 50 0 20 0.000 0 4.7124 4494 9863 16 16 4494 9863 4494 9879
2 3 0 1 0 7 50 0 -1 0.000 0 0 7 0 0 5
	 4579 9843 4407 9843 4407 9672 4579 9672 4579 9843
-6
6 4688 9672 4860 9880
1 3 0 1 0 0 50 0 20 0.000 0 4.7124 4774 9863 16 16 4774 9863 4774 9879
2 3 0 1 0 7 50 0 -1 0.000 0 0 7 0 0 5
	 4860 9843 4688 9843 4688 9672 4860 9672 4860 9843
-6
-6
6 4421 8938 4874 9146
6 4421 8938 4593 9146
1 3 0 1 0 0 50 0 20 0.000 1 1.5708 4507 8956 16 16 4507 8956 4507 8939
2 3 0 1 0 7 50 0 -1 0.000 0 0 7 0 0 5
	 4593 8975 4421 8975 4421 9146 4593 9146 4593 8975
-6
6 4702 8938 4874 9146
1 3 0 1 0 0 50 0 20 0.000 1 1.5708 4788 8956 16 16 4788 8956 4788 8939
2 3 0 1 0 7 50 0 -1 0.000 0 0 7 0 0 5
	 4874 8975 4702 8975 4702 9146 4874 9146 4874 8975
-6
-6
-6
4 0 0 50 -1 -1 9 0.0000 4 120 780 4259 10181 3/4 Tag (R-H)\001
-6
6 1382 8975 1825 10123
6 1382 9586 1825 10123
6 1382 9586 1825 9797
6 1382 9588 1554 9797
1 3 0 1 0 0 50 0 20 0.000 1 1.5708 1468 9605 16 16 1468 9605 1468 9590
2 3 0 1 0 7 50 0 -1 0.000 0 0 7 0 0 5
	 1554 9625 1382 9625 1382 9797 1554 9797 1554 9625
-6
6 1652 9586 1825 9794
1 3 0 1 0 0 50 0 20 0.000 1 1.5708 1739 9603 16 16 1739 9603 1739 9587
2 3 0 1 0 7 50 0 -1 0.000 0 0 7 0 0 5
	 1825 9622 1652 9622 1652 9794 1825 9794 1825 9622
-6
-6
6 1382 9912 1825 10123
6 1382 9915 1554 10123
1 3 0 1 0 0 50 0 20 0.000 1 1.5708 1468 9932 16 16 1468 9932 1468 9916
2 3 0 1 0 7 50 0 -1 0.000 0 0 7 0 0 5
	 1554 9951 1382 9951 1382 10123 1554 10123 1554 9951
-6
6 1652 9912 1825 10121
1 3 0 1 0 0 50 0 20 0.000 1 1.5708 1739 9929 16 16 1739 9929 1739 9914
2 3 0 1 0 7 50 0 -1 0.000 0 0 7 0 0 5
	 1825 9949 1652 9949 1652 10121 1825 10121 1825 9949
-6
-6
-6
6 1382 8975 1825 9513
6 1382 9302 1825 9513
6 1382 9302 1554 9511
1 3 0 1 0 0 50 0 20 0.000 0 4.7124 1468 9494 16 16 1468 9494 1468 9509
2 3 0 1 0 7 50 0 -1 0.000 0 0 7 0 0 5
	 1554 9474 1382 9474 1382 9302 1554 9302 1554 9474
-6
6 1652 9304 1825 9513
1 3 0 1 0 0 50 0 20 0.000 0 4.7124 1739 9496 16 16 1739 9496 1739 9511
2 3 0 1 0 7 50 0 -1 0.000 0 0 7 0 0 5
	 1825 9477 1652 9477 1652 9304 1825 9304 1825 9477
-6
-6
6 1382 8975 1825 9186
6 1382 8975 1554 9184
1 3 0 1 0 0 50 0 20 0.000 0 4.7124 1468 9167 16 16 1468 9167 1468 9182
2 3 0 1 0 7 50 0 -1 0.000 0 0 7 0 0 5
	 1554 9148 1382 9148 1382 8975 1554 8975 1554 9148
-6
6 1652 8978 1825 9186
1 3 0 1 0 0 50 0 20 0.000 0 4.7124 1739 9169 16 16 1739 9169 1739 9185
2 3 0 1 0 7 50 0 -1 0.000 0 0 7 0 0 5
	 1825 9150 1652 9150 1652 8978 1825 8978 1825 9150
-6
-6
-6
-6
6 5325 10275 6450 10500
4 0 0 50 -1 -1 9 0.0000 4 120 630 5572 10368 Completed\001
4 0 0 50 -1 -1 9 0.0000 4 90 1005 5385 10500 Double Pass Thru\001
-6
6 1312 10275 1912 10500
4 0 0 50 -1 -1 9 0.0000 4 90 420 1402 10368 Double\001
4 0 0 50 -1 -1 9 0.0000 4 90 555 1334 10500 Pass Thru\001
-6
6 1200 10875 2400 11850
4 0 0 50 -1 2 9 0.0000 4 120 750 1200 11025 Split vs. Box\001
4 0 0 50 -1 -1 9 0.0000 4 90 675 1200 11190 These terms\001
4 0 0 50 -1 -1 9 0.0000 4 120 795 1200 11355 specify which\001
4 0 0 50 -1 -1 9 0.0000 4 120 930 1200 11685 perform specific\001
4 0 0 50 -1 -1 9 0.0000 4 90 825 1200 11850 4-dancer calls.\001
4 0 0 50 -1 -1 9 0.0000 4 90 870 1200 11520 dancers should\001
-6
6 6975 5775 8100 7200
6 7039 5806 8070 6837
6 7039 5806 8070 6837
6 7305 5863 7506 6091
1 3 0 1 0 0 50 0 20 0.000 1 5.1051 7443 6071 16 16 7443 6071 7448 6087
1 3 0 1 0 7 50 0 -1 0.000 1 5.1051 7400 5969 95 95 7400 5969 7437 6057
-6
6 7620 6607 7820 6808
1 3 0 1 0 0 50 0 20 0.000 1 1.9635 7684 6628 16 16 7684 6628 7677 6613
1 3 0 1 0 7 50 0 -1 0.000 1 1.9635 7726 6730 95 95 7726 6730 7689 6641
-6
6 7820 6091 8050 6264
1 3 0 1 0 0 50 0 20 0.000 1 3.5343 7841 6230 16 16 7841 6230 7826 6235
1 3 0 1 0 7 50 0 -1 0.000 1 3.5343 7943 6186 95 95 7943 6186 7854 6223
-6
6 7047 6408 7277 6607
1 3 0 1 0 0 50 0 20 0.000 1 0.3927 7256 6471 16 16 7256 6471 7271 6464
1 3 0 1 0 7 50 0 -1 0.000 1 0.3927 7154 6513 95 95 7154 6513 7243 6475
-6
-6
6 7294 6631 7494 6832
1 3 0 1 0 0 50 0 20 0.000 0 4.3197 7357 6811 16 16 7357 6811 7350 6826
1 3 0 1 0 7 50 0 -1 0.000 0 4.3197 7399 6709 95 95 7399 6709 7363 6798
-6
6 7602 5878 7802 6107
1 3 0 1 0 0 50 0 20 0.000 0 1.1781 7739 5898 16 16 7739 5898 7745 5883
1 3 0 1 0 7 50 0 -1 0.000 0 1.1781 7696 6000 95 95 7696 6000 7734 5912
-6
6 7053 6125 7283 6298
1 3 0 1 0 0 50 0 20 0.000 0 2.7489 7074 6159 16 16 7074 6159 7059 6154
1 3 0 1 0 7 50 0 -1 0.000 0 2.7489 7176 6203 95 95 7176 6203 7087 6166
-6
6 7824 6417 8054 6617
1 3 0 1 0 0 50 0 20 0.000 0 5.8905 8033 6554 16 16 8033 6554 8048 6560
1 3 0 1 0 7 50 0 -1 0.000 0 5.8905 7931 6512 95 95 7931 6512 8020 6549
-6
-6
4 0 0 50 -1 -1 9 0.0000 4 120 690 7230 7128 Alamo Ring\001
-6
6 1500 5775 3825 6375
6 1500 5775 3600 6150
6 3075 5775 3600 6150
6 3075 5775 3300 6075
1 3 0 1 0 0 50 0 20 0.000 1 0.0000 3176 5855 16 16 3176 5855 3176 5839
2 3 0 1 0 7 50 0 -1 0.000 0 0 7 0 0 5
	 3261 5875 3090 5875 3090 6046 3261 6046 3261 5875
-6
6 3300 5850 3600 6150
1 3 0 1 0 0 50 0 20 0.000 1 0.0000 3451 6062 16 16 3451 6062 3451 6079
2 3 0 1 0 7 50 0 -1 0.000 0 0 7 0 0 5
	 3365 6043 3538 6043 3538 5872 3365 5872 3365 6043
-6
-6
6 1500 5775 2550 6150
6 1500 5775 2550 6150
6 1725 5775 2025 6075
1 3 0 1 0 0 50 0 20 0.000 1 0.0000 1883 5863 16 16 1883 5863 1883 5846
2 3 0 1 0 7 50 0 -1 0.000 0 0 7 0 0 5
	 1968 5882 1796 5882 1796 6053 1968 6053 1968 5882
-6
6 2325 5775 2550 6075
1 3 0 1 0 0 50 0 20 0.000 1 0.0000 2459 5858 16 16 2459 5858 2459 5842
2 3 0 1 0 7 50 0 -1 0.000 0 0 7 0 0 5
	 2545 5877 2373 5877 2373 6048 2545 6048 2545 5877
-6
6 2025 5850 2325 6150
1 3 0 1 0 0 50 0 20 0.000 1 0.0000 2177 6069 16 16 2177 6069 2177 6084
2 3 0 1 0 7 50 0 -1 0.000 0 0 7 0 0 5
	 2091 6049 2263 6049 2263 5878 2091 5878 2091 6049
-6
6 1500 5850 1725 6150
1 3 0 1 0 0 50 0 20 0.000 1 0.0000 1595 6069 16 16 1595 6069 1595 6084
2 3 0 1 0 7 50 0 -1 0.000 0 0 7 0 0 5
	 1510 6049 1681 6049 1681 5878 1510 5878 1510 6049
-6
-6
-6
-6
6 1500 6150 3825 6375
4 0 0 50 -1 -1 9 0.0000 4 120 1020 1515 6292 Ocean Wave (L-H)\001
4 0 0 50 -1 -1 9 0.0000 4 120 960 2820 6292 Mini-wave (R-H)\001
-6
-6
6 1575 6525 3750 7050
6 1575 6525 3750 6825
6 2625 6525 3750 6825
6 2925 6525 3150 6825
1 3 0 1 0 0 50 0 20 0.000 1 0.0000 3064 6774 16 16 3064 6774 3064 6789
2 3 0 1 0 7 50 0 -1 0.000 0 0 7 0 0 5
	 2979 6754 3150 6754 3150 6582 2979 6582 2979 6754
-6
6 3225 6525 3450 6825
1 3 0 1 0 0 50 0 20 0.000 1 0.0000 3361 6565 16 16 3361 6565 3361 6549
2 3 0 1 0 7 50 0 -1 0.000 0 0 7 0 0 5
	 3447 6585 3276 6585 3276 6756 3447 6756 3447 6585
-6
6 2625 6525 2925 6825
1 3 0 1 0 0 50 0 20 0.000 1 0.0000 2777 6564 16 16 2777 6564 2777 6548
2 3 0 1 0 7 50 0 -1 0.000 0 0 7 0 0 5
	 2862 6583 2690 6583 2690 6755 2862 6755 2862 6583
-6
6 3525 6525 3750 6825
1 3 0 1 0 0 50 0 20 0.000 1 0.0000 3629 6770 16 16 3629 6770 3629 6785
2 3 0 1 0 7 50 0 -1 0.000 0 0 7 0 0 5
	 3543 6750 3714 6750 3714 6578 3543 6578 3543 6750
-6
-6
6 1575 6525 2625 6825
6 1875 6525 2100 6825
1 3 0 1 0 0 50 0 20 0.000 1 0.0000 1963 6774 16 16 1963 6774 1963 6789
2 3 0 1 0 7 50 0 -1 0.000 0 0 7 0 0 5
	 1878 6754 2049 6754 2049 6582 1878 6582 1878 6754
-6
6 2100 6525 2400 6825
1 3 0 1 0 0 50 0 20 0.000 1 0.0000 2260 6565 16 16 2260 6565 2260 6549
2 3 0 1 0 7 50 0 -1 0.000 0 0 7 0 0 5
	 2346 6585 2174 6585 2174 6756 2346 6756 2346 6585
-6
6 1575 6525 1800 6825
1 3 0 1 0 0 50 0 20 0.000 1 0.0000 1676 6564 16 16 1676 6564 1676 6548
2 3 0 1 0 7 50 0 -1 0.000 0 0 7 0 0 5
	 1761 6583 1589 6583 1589 6755 1761 6755 1761 6583
-6
6 2400 6525 2625 6825
1 3 0 1 0 0 50 0 20 0.000 1 0.0000 2528 6770 16 16 2528 6770 2528 6785
2 3 0 1 0 7 50 0 -1 0.000 0 0 7 0 0 5
	 2442 6750 2613 6750 2613 6578 2442 6578 2442 6750
-6
-6
-6
4 0 0 50 -1 -1 9 0.0000 4 120 990 2167 6975 Tidal Wave (R-H)\001
-6
6 4050 5775 5400 6900
6 4087 6150 5212 6525
6 4387 6225 4612 6525
1 3 0 1 0 0 50 0 20 0.000 1 0.0000 4519 6430 16 16 4519 6430 4519 6445
2 3 0 1 0 7 50 0 -1 0.000 0 0 7 0 0 5
	 4434 6411 4605 6411 4605 6238 4434 6238 4434 6411
-6
6 4687 6150 4912 6450
1 3 0 1 0 0 50 0 20 0.000 1 0.0000 4816 6221 16 16 4816 6221 4816 6205
2 3 0 1 0 7 50 0 -1 0.000 0 0 7 0 0 5
	 4902 6241 4730 6241 4730 6412 4902 6412 4902 6241
-6
6 4087 6150 4387 6450
1 3 0 1 0 0 50 0 20 0.000 1 0.0000 4232 6220 16 16 4232 6220 4232 6205
2 3 0 1 0 7 50 0 -1 0.000 0 0 7 0 0 5
	 4317 6239 4145 6239 4145 6411 4317 6411 4317 6239
-6
6 4987 6225 5212 6450
1 3 0 1 0 0 50 0 20 0.000 1 0.0000 5084 6426 16 16 5084 6426 5084 6441
2 3 0 1 0 7 50 0 -1 0.000 0 0 7 0 0 5
	 4998 6407 5169 6407 5169 6234 4998 6234 4998 6407
-6
-6
6 4087 5775 5212 6075
6 4387 5775 4687 6075
1 3 0 1 0 0 50 0 20 0.000 1 0.0000 4528 6032 16 16 4528 6032 4528 6049
2 3 0 1 0 7 50 0 -1 0.000 0 0 7 0 0 5
	 4442 6013 4613 6013 4613 5842 4442 5842 4442 6013
-6
6 4687 5775 4912 6075
1 3 0 1 0 0 50 0 20 0.000 1 0.0000 4825 5824 16 16 4825 5824 4825 5808
2 3 0 1 0 7 50 0 -1 0.000 0 0 7 0 0 5
	 4910 5843 4738 5843 4738 6015 4910 6015 4910 5843
-6
6 4087 5775 4387 6075
1 3 0 1 0 0 50 0 20 0.000 1 0.0000 4240 5823 16 16 4240 5823 4240 5807
2 3 0 1 0 7 50 0 -1 0.000 0 0 7 0 0 5
	 4325 5842 4154 5842 4154 6014 4325 6014 4325 5842
-6
6 4987 5775 5212 6075
1 3 0 1 0 0 50 0 20 0.000 1 0.0000 5092 6028 16 16 5092 6028 5092 6044
2 3 0 1 0 7 50 0 -1 0.000 0 0 7 0 0 5
	 5007 6009 5178 6009 5178 5838 5007 5838 5007 6009
-6
-6
6 4124 6525 5399 6900
4 0 0 50 -1 -1 9 0.0000 4 120 720 4281 6825 Waves (R-H)\001
4 0 0 50 -1 -1 9 0.0000 4 120 900 4191 6675 (Parallel) Ocean\001
-6
-6
6 8325 5700 9225 7350
6 8538 5731 9023 6883
6 8538 6672 8981 6883
6 8538 6674 8710 6883
1 3 0 1 0 0 50 0 20 0.000 1 1.5708 8625 6691 16 16 8625 6691 8625 6676
2 3 0 1 0 7 50 0 -1 0.000 0 0 7 0 0 5
	 8710 6711 8538 6711 8538 6883 8710 6883 8710 6711
-6
6 8809 6672 8981 6881
1 3 0 1 0 0 50 0 20 0.000 1 1.5708 8895 6689 16 16 8895 6689 8895 6674
2 3 0 1 0 7 50 0 -1 0.000 0 0 7 0 0 5
	 8981 6708 8809 6708 8809 6881 8981 6881 8981 6708
-6
-6
6 8538 5735 8981 5946
6 8538 5735 8710 5944
1 3 0 1 0 0 50 0 20 0.000 0 4.7124 8625 5927 16 16 8625 5927 8625 5942
2 3 0 1 0 7 50 0 -1 0.000 0 0 7 0 0 5
	 8710 5907 8538 5907 8538 5735 8710 5735 8710 5907
-6
6 8809 5738 8981 5946
1 3 0 1 0 0 50 0 20 0.000 0 4.7124 8895 5929 16 16 8895 5929 8895 5944
2 3 0 1 0 7 50 0 -1 0.000 0 0 7 0 0 5
	 8981 5910 8809 5910 8809 5738 8981 5738 8981 5910
-6
-6
6 8538 6369 8981 6580
6 8538 6369 8710 6577
1 3 0 1 0 0 50 0 20 0.000 0 4.7124 8625 6560 16 16 8625 6560 8625 6576
2 3 0 1 0 7 50 0 -1 0.000 0 0 7 0 0 5
	 8710 6541 8538 6541 8538 6369 8710 6369 8710 6541
-6
6 8809 6371 8981 6580
1 3 0 1 0 0 50 0 20 0.000 0 4.7124 8895 6563 16 16 8895 6563 8895 6578
2 3 0 1 0 7 50 0 -1 0.000 0 0 7 0 0 5
	 8981 6544 8809 6544 8809 6371 8981 6371 8981 6544
-6
-6
6 8538 6066 8981 6277
6 8538 6068 8710 6277
1 3 0 1 0 0 50 0 20 0.000 1 1.5708 8625 6085 16 16 8625 6085 8625 6070
2 3 0 1 0 7 50 0 -1 0.000 0 0 7 0 0 5
	 8710 6105 8538 6105 8538 6277 8710 6277 8710 6105
-6
6 8809 6066 8981 6274
1 3 0 1 0 0 50 0 20 0.000 1 1.5708 8895 6083 16 16 8895 6083 8895 6067
2 3 0 1 0 7 50 0 -1 0.000 0 0 7 0 0 5
	 8981 6102 8809 6102 8809 6274 8981 6274 8981 6102
-6
-6
-6
6 8325 6975 9225 7350
4 0 0 50 -1 -1 9 0.0000 4 120 690 8355 7113 Eight Chain\001
4 0 0 50 -1 -1 9 0.0000 4 90 270 8602 7278 Thru\001
-6
-6
6 8100 3450 8775 3825
4 0 0 50 -1 -1 9 0.0000 4 120 390 8197 3590 Facing\001
4 0 0 50 -1 -1 9 0.0000 4 120 480 8145 3755 Couples\001
-6
6 7165 3043 7617 3252
6 7165 3043 7337 3252
1 3 0 1 0 0 50 0 20 0.000 1 1.5708 7251 3061 16 16 7251 3061 7251 3045
2 3 0 1 0 7 50 0 -1 0.000 0 0 7 0 0 5
	 7337 3080 7165 3080 7165 3252 7337 3252 7337 3080
-6
6 7446 3043 7617 3252
1 3 0 1 0 0 50 0 20 0.000 1 1.5708 7532 3061 16 16 7532 3061 7532 3045
2 3 0 1 0 7 50 0 -1 0.000 0 0 7 0 0 5
	 7617 3080 7446 3080 7446 3252 7617 3252 7617 3080
-6
-6
6 8100 2625 8625 3300
6 8400 2625 8625 2925
1 3 0 1 0 0 50 0 20 0.000 1 4.7124 8537 2883 16 16 8537 2883 8537 2899
2 3 0 1 0 7 50 0 -1 0.000 0 0 7 0 0 5
	 8452 2864 8623 2864 8623 2692 8452 2692 8452 2864
-6
6 8100 2625 8400 2925
1 3 0 1 0 0 50 0 20 0.000 1 4.7124 8246 2883 16 16 8246 2883 8246 2899
2 3 0 1 0 7 50 0 -1 0.000 0 0 7 0 0 5
	 8161 2864 8332 2864 8332 2692 8161 2692 8161 2864
-6
6 8400 3000 8625 3300
1 3 0 1 0 0 50 0 20 0.000 1 4.7124 8537 3065 16 16 8537 3065 8537 3050
2 3 0 1 0 7 50 0 -1 0.000 0 0 7 0 0 5
	 8622 3084 8450 3084 8450 3256 8622 3256 8622 3084
-6
6 8100 3000 8400 3300
1 3 0 1 0 0 50 0 20 0.000 1 4.7124 8255 3065 16 16 8255 3065 8255 3050
2 3 0 1 0 7 50 0 -1 0.000 0 0 7 0 0 5
	 8341 3084 8170 3084 8170 3256 8341 3256 8341 3084
-6
-6
6 6375 2625 6600 3300
6 6375 2625 6600 2925
1 3 0 1 0 0 50 0 20 0.000 1 4.7124 6473 2887 16 16 6473 2887 6473 2903
2 3 0 1 0 7 50 0 -1 0.000 0 0 7 0 0 5
	 6387 2868 6558 2868 6558 2697 6387 2697 6387 2868
-6
6 6375 3000 6600 3300
1 3 0 1 0 0 50 0 20 0.000 1 4.7124 6482 3069 16 16 6482 3069 6482 3054
2 3 0 1 0 7 50 0 -1 0.000 0 0 7 0 0 5
	 6568 3089 6396 3089 6396 3260 6568 3260 6568 3089
-6
-6
6 6225 3450 6900 3825
4 0 0 50 -1 -1 9 0.0000 4 120 390 6322 3609 Facing\001
4 0 0 50 -1 -1 9 0.0000 4 90 450 6270 3774 Dancers\001
-6
6 1350 7500 2025 8400
6 1387 7500 1987 8100
6 1387 7650 1612 7950
1 3 0 1 0 7 50 0 -1 0.000 1 0.0000 1507 7795 95 95 1507 7795 1507 7698
1 3 0 1 0 0 50 0 20 0.000 1 0.0000 1507 7684 16 16 1507 7684 1507 7668
-6
6 1537 7800 1837 8100
1 3 0 1 0 7 50 0 -1 0.000 1 0.0000 1698 7976 95 95 1698 7976 1601 7976
1 3 0 1 0 0 50 0 20 0.000 1 0.0000 1587 7976 16 16 1587 7976 1571 7976
-6
6 1537 7500 1837 7725
1 3 0 1 0 7 50 0 -1 0.000 1 0.0000 1687 7606 95 95 1687 7606 1783 7606
1 3 0 1 0 0 50 0 20 0.000 1 0.0000 1798 7606 16 16 1798 7606 1814 7606
-6
6 1687 7650 1987 7950
1 3 0 1 0 7 50 0 -1 0.000 1 0.0000 1856 7791 95 95 1856 7791 1856 7887
1 3 0 1 0 0 50 0 20 0.000 1 0.0000 1856 7902 16 16 1856 7902 1856 7918
-6
-6
4 0 0 50 -1 -1 9 0.0000 4 120 570 1402 8341 Star (R-H)\001
-6
6 5625 7200 6300 8700
6 5625 8175 6150 8475
6 5625 8175 5925 8475
1 3 0 1 0 0 50 0 20 0.000 1 0.0000 5775 8381 16 16 5775 8381 5775 8397
2 3 0 1 0 7 50 0 -1 0.000 0 0 7 0 0 5
	 5690 8361 5861 8361 5861 8190 5690 8190 5690 8361
-6
6 5925 8175 6150 8475
1 3 0 1 0 0 50 0 20 0.000 1 0.0000 6046 8382 16 16 6046 8382 6046 8398
2 3 0 1 0 7 50 0 -1 0.000 0 0 7 0 0 5
	 5961 8362 6132 8362 6132 8191 5961 8191 5961 8362
-6
-6
6 5625 7800 6150 8100
6 5625 7800 5925 8100
1 3 0 1 0 0 50 0 20 0.000 1 0.0000 5776 7879 16 16 5776 7879 5776 7863
2 3 0 1 0 7 50 0 -1 0.000 0 0 7 0 0 5
	 5862 7898 5690 7898 5690 8070 5862 8070 5862 7898
-6
6 5925 7800 6150 8100
1 3 0 1 0 0 50 0 20 0.000 1 0.0000 6047 7876 16 16 6047 7876 6047 7861
2 3 0 1 0 7 50 0 -1 0.000 0 0 7 0 0 5
	 6133 7896 5961 7896 5961 8068 6133 8068 6133 7896
-6
-6
6 5625 7500 6150 7800
6 5625 7500 5925 7800
1 3 0 1 0 0 50 0 20 0.000 1 0.0000 5775 7746 16 16 5775 7746 5775 7762
2 3 0 1 0 7 50 0 -1 0.000 0 0 7 0 0 5
	 5690 7727 5861 7727 5861 7555 5690 7555 5690 7727
-6
6 5925 7500 6150 7800
1 3 0 1 0 0 50 0 20 0.000 1 0.0000 6046 7745 16 16 6046 7745 6046 7761
2 3 0 1 0 7 50 0 -1 0.000 0 0 7 0 0 5
	 5961 7726 6132 7726 6132 7554 5961 7554 5961 7726
-6
-6
6 5625 7200 6150 7425
6 5625 7200 5925 7425
1 3 0 1 0 0 50 0 20 0.000 1 0.0000 5776 7230 16 16 5776 7230 5776 7214
2 3 0 1 0 7 50 0 -1 0.000 0 0 7 0 0 5
	 5862 7250 5690 7250 5690 7421 5862 7421 5862 7250
-6
6 5925 7200 6150 7425
1 3 0 1 0 0 50 0 20 0.000 1 0.0000 6047 7229 16 16 6047 7229 6047 7213
2 3 0 1 0 7 50 0 -1 0.000 0 0 7 0 0 5
	 6133 7248 5961 7248 5961 7420 6133 7420 6133 7248
-6
-6
4 0 0 50 -1 -1 9 0.0000 4 120 510 5632 8607 Trade By\001
-6
6 2400 7237 3600 8662
6 2441 7269 3594 8384
6 2441 7692 2641 7950
1 3 0 1 0 0 50 0 20 0.000 1 4.7124 2555 7912 16 16 2555 7912 2555 7928
1 3 0 1 0 7 50 0 -1 0.000 1 4.7124 2555 7801 95 95 2555 7801 2555 7896
-6
6 2928 8212 3186 8384
1 3 0 1 0 0 50 0 20 0.000 1 0.0000 3148 8297 16 16 3148 8297 3164 8297
1 3 0 1 0 7 50 0 -1 0.000 1 0.0000 3037 8297 95 95 3037 8297 3133 8297
-6
6 3394 7688 3594 7917
1 3 0 1 0 0 50 0 20 0.000 1 1.5708 3509 7727 16 16 3509 7727 3509 7710
1 3 0 1 0 7 50 0 -1 0.000 1 1.5708 3509 7837 95 95 3509 7837 3509 7741
-6
6 2900 7269 3158 7440
1 3 0 1 0 0 50 0 20 0.000 1 3.1416 2938 7356 16 16 2938 7356 2922 7356
1 3 0 1 0 7 50 0 -1 0.000 1 3.1416 3048 7356 95 95 3048 7356 2952 7356
-6
6 2743 7551 3293 8092
6 2743 7676 2943 7905
1 3 0 1 0 0 50 0 20 0.000 1 1.5708 2858 7714 16 16 2858 7714 2858 7698
1 3 0 1 0 7 50 0 -1 0.000 1 1.5708 2858 7825 95 95 2858 7825 2858 7729
-6
6 2900 7921 3158 8092
1 3 0 1 0 0 50 0 20 0.000 1 3.1416 2938 8007 16 16 2938 8007 2922 8007
1 3 0 1 0 7 50 0 -1 0.000 1 3.1416 3048 8007 95 95 3048 8007 2952 8007
-6
6 2929 7551 3187 7723
1 3 0 1 0 0 50 0 20 0.000 1 0.0000 3149 7637 16 16 3149 7637 3165 7637
1 3 0 1 0 7 50 0 -1 0.000 1 0.0000 3038 7637 95 95 3038 7637 3134 7637
-6
6 3093 7713 3293 7971
1 3 0 1 0 0 50 0 20 0.000 1 4.7124 3207 7933 16 16 3207 7933 3207 7949
1 3 0 1 0 7 50 0 -1 0.000 1 4.7124 3207 7822 95 95 3207 7822 3207 7917
-6
-6
-6
4 0 0 50 -1 -1 9 0.0000 4 90 255 2872 8594 Thar\001
-6
6 3975 7237 5175 8662
6 3975 7237 5128 8352
6 3975 7671 4175 7929
1 3 0 1 0 0 50 0 20 0.000 0 1.5708 4089 7709 16 16 4089 7709 4089 7693
1 3 0 1 0 7 50 0 -1 0.000 0 1.5708 4089 7820 95 95 4089 7820 4089 7724
-6
6 4462 7237 4720 7409
1 3 0 1 0 0 50 0 20 0.000 0 -0.0000 4682 7323 16 16 4682 7323 4698 7323
1 3 0 1 0 7 50 0 -1 0.000 0 -0.0000 4571 7323 95 95 4571 7323 4668 7323
-6
6 4929 7703 5128 7933
1 3 0 1 0 0 50 0 20 0.000 0 4.7124 5043 7894 16 16 5043 7894 5043 7910
1 3 0 1 0 7 50 0 -1 0.000 0 4.7124 5043 7783 95 95 5043 7783 5043 7880
-6
6 4434 8180 4692 8352
1 3 0 1 0 0 50 0 20 0.000 0 3.1416 4472 8265 16 16 4472 8265 4457 8265
1 3 0 1 0 7 50 0 -1 0.000 0 3.1416 4583 8265 95 95 4583 8265 4487 8265
-6
6 4277 7529 4828 8070
6 4277 7716 4477 7945
1 3 0 1 0 0 50 0 20 0.000 0 4.7124 4392 7906 16 16 4392 7906 4392 7922
1 3 0 1 0 7 50 0 -1 0.000 0 4.7124 4392 7796 95 95 4392 7796 4392 7892
-6
6 4434 7529 4692 7700
1 3 0 1 0 0 50 0 20 0.000 0 3.1416 4472 7614 16 16 4472 7614 4457 7614
1 3 0 1 0 7 50 0 -1 0.000 0 3.1416 4583 7614 95 95 4583 7614 4487 7614
-6
6 4463 7897 4721 8070
1 3 0 1 0 0 50 0 20 0.000 0 -0.0000 4683 7984 16 16 4683 7984 4699 7984
1 3 0 1 0 7 50 0 -1 0.000 0 -0.0000 4572 7984 95 95 4572 7984 4668 7984
-6
6 4627 7650 4828 7908
1 3 0 1 0 0 50 0 20 0.000 0 1.5708 4741 7688 16 16 4741 7688 4741 7672
1 3 0 1 0 7 50 0 -1 0.000 0 1.5708 4741 7799 95 95 4741 7799 4741 7703
-6
-6
-6
4 0 0 50 -1 -1 9 0.0000 4 120 960 4095 8579 Wrong Way Thar\001
-6
6 7800 10425 9225 12225
6 7827 11119 9181 11224
1 3 0 1 0 0 50 0 20 0.000 1 0.0000 7850 11175 16 16 7850 11175 7866 11175
4 0 0 50 -1 0 8 0.0000 4 105 1260 7921 11209 = Nose (facing direction)\001
-6
6 7875 11400 9150 12225
1 3 0 1 0 0 50 0 20 0.000 1 0.0000 8033 11711 16 16 8033 11711 8049 11711
1 3 0 1 0 7 50 0 -1 0.000 1 0.0000 8046 12087 95 95 8046 12087 8046 11990
1 3 0 1 0 0 50 0 20 0.000 1 0.0000 8046 11976 16 16 8046 11976 8062 11976
2 3 0 1 0 7 50 0 -1 0.000 0 0 7 0 0 5
	 8119 11731 7947 11731 7947 11902 8119 11902 8119 11731
4 0 0 50 -1 0 8 0.0000 4 105 1155 7926 11477 Only when both appear\001
4 0 0 50 -1 0 8 0.0000 4 90 660 8151 12092  = Girl's role\001
4 0 0 50 -1 0 8 0.0000 4 105 645 8151 11867  = Boy's role\001
4 0 0 50 -1 0 8 0.0000 4 90 90 7926 11642 in\001
4 0 0 50 -1 1 8 0.0000 4 60 255 8105 11642 same\001
4 0 0 50 -1 0 8 0.0000 4 105 405 8449 11642 diagram:\001
-6
6 7926 10706 9081 10976
4 0 0 50 -1 0 8 0.0000 4 105 1080 7926 10961 (L-H) = Left-Handed\001
4 0 0 50 -1 0 8 0.0000 4 105 1155 7926 10796 (R-H) = Right-Handed\001
-6
4 0 0 50 -1 2 12 0.0000 4 180 345 8331 10562 Key\001
-6
6 6900 10650 7500 11925
6 6937 10650 7462 11625
6 6937 11025 7162 11325
1 3 0 1 0 0 50 0 20 0.000 0 1.5708 7073 11246 16 16 7073 11246 7073 11262
2 3 0 1 0 7 50 0 -1 0.000 0 0 7 0 0 5
	 7158 11227 6986 11227 6986 11055 7158 11055 7158 11227
-6
6 7237 10950 7462 11250
1 3 0 1 0 0 50 0 20 0.000 0 4.7124 7340 11042 16 16 7340 11042 7340 11026
2 3 0 1 0 7 50 0 -1 0.000 0 0 7 0 0 5
	 7255 11061 7426 11061 7426 11233 7255 11233 7255 11061
-6
6 6937 10650 7162 10950
1 3 0 1 0 0 50 0 20 0.000 0 1.5708 7057 10887 16 16 7057 10887 7057 10903
2 3 0 1 0 7 50 0 -1 0.000 0 0 7 0 0 5
	 7142 10867 6971 10867 6971 10696 7142 10696 7142 10867
-6
6 7237 11325 7462 11625
1 3 0 1 0 0 50 0 20 0.000 1 4.7124 7344 11376 16 16 7344 11376 7344 11360
2 3 0 1 0 7 50 0 -1 0.000 0 0 7 0 0 5
	 7430 11395 7258 11395 7258 11567 7430 11567 7430 11395
-6
-6
4 0 0 50 -1 -1 9 0.0000 4 120 405 6997 11850 Z (L-H)\001
-6
6 2332 10462 2857 11587
2 3 1 1 0 7 50 0 -1 4.000 0 0 7 0 0 5
	 2553 10462 2381 10462 2381 10634 2553 10634 2553 10462
2 3 1 1 0 7 50 0 -1 4.000 0 0 7 0 0 5
	 2553 10778 2381 10778 2381 10949 2553 10949 2553 10778
2 3 1 1 0 7 50 0 -1 4.000 0 0 7 0 0 5
	 2553 11094 2381 11094 2381 11266 2553 11266 2553 11094
2 3 1 1 0 7 50 0 -1 4.000 0 0 7 0 0 5
	 2650 10635 2822 10635 2822 10462 2650 10462 2650 10635
2 3 1 1 0 7 50 0 -1 4.000 0 0 7 0 0 5
	 2650 10951 2822 10951 2822 10779 2650 10779 2650 10951
2 3 1 1 0 7 50 0 -1 4.000 0 0 7 0 0 5
	 2650 11266 2822 11266 2822 11095 2650 11095 2650 11266
2 3 1 1 0 7 50 0 -1 4.000 0 0 7 0 0 5
	 2650 11582 2822 11582 2822 11411 2650 11411 2650 11582
2 3 1 1 0 7 50 0 -1 4.000 0 0 7 0 0 5
	 2553 11409 2381 11409 2381 11581 2553 11581 2553 11409
-6
6 3419 10425 3869 11625
6 3424 10743 3864 10916
2 3 0 1 0 7 50 0 -1 0.000 0 0 7 0 0 5
	 3692 10916 3864 10916 3864 10744 3692 10744 3692 10916
2 3 0 1 0 7 50 0 -1 0.000 0 0 7 0 0 5
	 3595 10743 3424 10743 3424 10914 3595 10914 3595 10743
-6
6 3428 11169 3869 11341
2 3 0 1 0 7 50 0 -1 0.000 0 0 7 0 0 5
	 3697 11341 3869 11341 3869 11170 3697 11170 3697 11341
2 3 0 1 0 7 50 0 -1 0.000 0 0 7 0 0 5
	 3600 11169 3428 11169 3428 11341 3600 11341 3600 11169
-6
2 3 0 1 0 7 50 0 -1 0.000 0 0 7 0 0 5
	 3690 10664 3862 10664 3862 10492 3690 10492 3690 10664
2 3 0 1 0 7 50 0 -1 0.000 0 0 7 0 0 5
	 3690 11611 3862 11611 3862 11440 3690 11440 3690 11611
2 3 0 1 0 7 50 0 -1 0.000 0 0 7 0 0 5
	 3593 10492 3422 10492 3422 10663 3593 10663 3593 10492
2 3 0 1 0 7 50 0 -1 0.000 0 0 7 0 0 5
	 3593 11438 3422 11438 3422 11610 3593 11610 3593 11438
-6
6 4468 10425 4993 11625
6 4485 11061 4926 11234
2 3 0 1 0 7 50 0 -1 0.000 0 0 7 0 0 5
	 4754 11234 4926 11234 4926 11062 4754 11062 4754 11234
2 3 0 1 0 7 50 0 -1 0.000 0 0 7 0 0 5
	 4657 11061 4485 11061 4485 11234 4657 11234 4657 11061
-6
6 4491 10818 4932 10991
2 3 0 1 0 7 50 0 -1 0.000 0 0 7 0 0 5
	 4759 10991 4932 10991 4932 10819 4759 10819 4759 10991
2 3 0 1 0 7 50 0 -1 0.000 0 0 7 0 0 5
	 4662 10818 4491 10818 4491 10990 4662 10990 4662 10818
-6
2 3 1 1 0 7 50 0 -1 4.000 0 0 7 0 0 5
	 4754 10642 4926 10642 4926 10470 4754 10470 4754 10642
2 3 1 1 0 7 50 0 -1 4.000 0 0 7 0 0 5
	 4754 11589 4926 11589 4926 11418 4754 11418 4754 11589
2 3 1 1 0 7 50 0 -1 4.000 0 0 7 0 0 5
	 4657 10470 4485 10470 4485 10641 4657 10641 4657 10470
2 3 1 1 0 7 50 0 -1 4.000 0 0 7 0 0 5
	 4657 11416 4485 11416 4485 11589 4657 11589 4657 11416
-6
6 2287 11737 2887 12112
4 0 0 50 -1 -1 9 0.0000 4 120 480 2347 11887 Original\001
4 0 0 50 -1 -1 9 0.0000 4 90 600 2287 12052 Formation\001
-6
6 3225 11775 4050 12075
4 0 0 50 -1 -1 9 0.0000 4 120 795 3240 12037 halves active)\001
4 0 0 50 -1 -1 9 0.0000 4 120 720 3277 11887 Split... (both\001
-6
6 4200 11775 5400 12075
4 0 0 50 -1 -1 9 0.0000 4 120 1170 4215 12037 (only centers active)\001
4 0 0 50 -1 -1 9 0.0000 4 90 945 4327 11887 Center 4 - Box ...\001
-6
6 5400 5475 6375 7050
6 5623 5475 6148 6750
6 5923 5550 6148 6150
6 5923 5550 6148 5850
1 3 0 1 0 0 50 0 20 0.000 1 0.0000 6034 5757 16 16 6034 5757 6034 5772
2 3 0 1 0 7 50 0 -1 0.000 0 0 7 0 0 5
	 5948 5737 6120 5737 6120 5565 5948 5565 5948 5737
-6
6 5923 5850 6148 6150
1 3 0 1 0 0 50 0 20 0.000 1 0.0000 6034 6065 16 16 6034 6065 6034 6080
2 3 0 1 0 7 50 0 -1 0.000 0 0 7 0 0 5
	 5948 6045 6120 6045 6120 5873 5948 5873 5948 6045
-6
-6
6 5623 5475 5923 6075
6 5623 5775 5923 6075
1 3 0 1 0 0 50 0 20 0.000 1 0.0000 5766 5858 16 16 5766 5858 5766 5842
2 3 0 1 0 7 50 0 -1 0.000 0 0 7 0 0 5
	 5851 5877 5680 5877 5680 6049 5851 6049 5851 5877
-6
6 5623 5475 5923 5775
1 3 0 1 0 0 50 0 20 0.000 1 0.0000 5766 5550 16 16 5766 5550 5766 5534
2 3 0 1 0 7 50 0 -1 0.000 0 0 7 0 0 5
	 5851 5569 5680 5569 5680 5741 5851 5741 5851 5569
-6
-6
6 5623 6150 6148 6750
6 5923 6150 6148 6750
6 5923 6150 6148 6450
1 3 0 1 0 0 50 0 20 0.000 1 0.0000 6034 6396 16 16 6034 6396 6034 6412
2 3 0 1 0 7 50 0 -1 0.000 0 0 7 0 0 5
	 5948 6377 6120 6377 6120 6206 5948 6206 5948 6377
-6
6 5923 6450 6148 6750
1 3 0 1 0 0 50 0 20 0.000 1 0.0000 6034 6704 16 16 6034 6704 6034 6720
2 3 0 1 0 7 50 0 -1 0.000 0 0 7 0 0 5
	 5948 6685 6120 6685 6120 6514 5948 6514 5948 6685
-6
-6
6 5623 6150 5923 6750
6 5623 6450 5923 6750
1 3 0 1 0 0 50 0 20 0.000 1 0.0000 5766 6497 16 16 5766 6497 5766 6482
2 3 0 1 0 7 50 0 -1 0.000 0 0 7 0 0 5
	 5851 6517 5680 6517 5680 6689 5851 6689 5851 6517
-6
6 5623 6150 5923 6450
1 3 0 1 0 0 50 0 20 0.000 1 0.0000 5766 6189 16 16 5766 6189 5766 6174
2 3 0 1 0 7 50 0 -1 0.000 0 0 7 0 0 5
	 5851 6209 5680 6209 5680 6381 5851 6381 5851 6209
-6
-6
-6
-6
4 0 0 50 -1 -1 9 0.0000 4 120 870 5452 6985 Columns (R-H)\001
-6
6 1296 4414 2331 4623
6 1296 4414 1468 4623
1 3 0 1 0 0 50 0 20 0.000 1 1.5708 1383 4432 16 16 1383 4432 1383 4416
2 3 0 1 0 7 50 0 -1 0.000 0 0 7 0 0 5
	 1468 4452 1296 4452 1296 4623 1468 4623 1468 4452
-6
6 1577 4414 1749 4623
1 3 0 1 0 0 50 0 20 0.000 1 1.5708 1663 4432 16 16 1663 4432 1663 4416
2 3 0 1 0 7 50 0 -1 0.000 0 0 7 0 0 5
	 1749 4452 1577 4452 1577 4623 1749 4623 1749 4452
-6
6 1868 4414 2040 4623
1 3 0 1 0 0 50 0 20 0.000 1 1.5708 1954 4432 16 16 1954 4432 1954 4416
2 3 0 1 0 7 50 0 -1 0.000 0 0 7 0 0 5
	 2040 4452 1868 4452 1868 4623 2040 4623 2040 4452
-6
6 2159 4414 2331 4623
1 3 0 1 0 0 50 0 20 0.000 1 1.5708 2245 4432 16 16 2245 4432 2245 4416
2 3 0 1 0 7 50 0 -1 0.000 0 0 7 0 0 5
	 2331 4452 2159 4452 2159 4623 2331 4623 2331 4452
-6
-6
6 2897 4378 3925 4624
6 2897 4378 3069 4587
1 3 0 1 0 0 50 0 20 0.000 1 1.5708 2983 4396 16 16 2983 4396 2983 4381
2 3 0 1 0 7 50 0 -1 0.000 0 0 7 0 0 5
	 3069 4415 2897 4415 2897 4587 3069 4587 3069 4415
-6
6 3178 4378 3349 4587
1 3 0 1 0 0 50 0 20 0.000 1 1.5708 3264 4396 16 16 3264 4396 3264 4381
2 3 0 1 0 7 50 0 -1 0.000 0 0 7 0 0 5
	 3349 4415 3178 4415 3178 4587 3349 4587 3349 4415
-6
6 3467 4414 3638 4624
1 3 0 1 0 0 50 0 20 0.000 1 4.7124 3552 4606 16 16 3552 4606 3552 4621
2 3 0 1 0 7 50 0 -1 0.000 0 0 7 0 0 5
	 3467 4587 3638 4587 3638 4414 3467 4414 3467 4587
-6
6 3754 4412 3925 4621
1 3 0 1 0 0 50 0 20 0.000 1 4.7124 3838 4603 16 16 3838 4603 3838 4619
2 3 0 1 0 7 50 0 -1 0.000 0 0 7 0 0 5
	 3754 4583 3925 4583 3925 4412 3754 4412 3754 4583
-6
-6
6 4425 4350 5550 4800
6 4425 4350 4650 4800
6 4425 4350 4650 4650
1 3 0 1 0 0 50 0 20 0.000 1 1.5708 4534 4593 16 16 4534 4593 4534 4577
1 3 0 1 0 0 50 0 20 0.000 1 1.5708 4536 4384 16 16 4536 4384 4536 4368
2 3 0 1 0 7 50 0 -1 0.000 0 0 7 0 0 5
	 4622 4403 4450 4403 4450 4575 4622 4575 4622 4403
-6
4 0 0 50 -1 1 7 0.0000 4 75 180 4447 4762 End\001
-6
6 4725 4350 5250 4800
6 4725 4350 5250 4650
1 3 0 1 0 0 50 0 20 0.000 1 1.5708 4818 4596 16 16 4818 4596 4818 4580
1 3 0 1 0 0 50 0 20 0.000 1 1.5708 5109 4593 16 16 5109 4593 5109 4578
1 3 0 1 0 0 50 0 20 0.000 1 1.5708 5108 4384 16 16 5108 4384 5108 4368
1 3 0 1 0 0 50 0 20 0.000 1 1.5708 4817 4384 16 16 4817 4384 4817 4368
2 3 0 1 0 7 50 0 -1 0.000 0 0 7 0 0 5
	 5194 4403 5022 4403 5022 4575 5194 4575 5194 4403
2 3 0 1 0 7 50 0 -1 0.000 0 0 7 0 0 5
	 4903 4403 4731 4403 4731 4575 4903 4575 4903 4403
-6
4 0 0 50 -1 1 7 0.0000 4 75 345 4815 4762 Centers\001
-6
6 5250 4350 5550 4800
6 5250 4350 5550 4650
1 3 0 1 0 0 50 0 20 0.000 1 1.5708 5399 4384 16 16 5399 4384 5399 4368
1 3 0 1 0 0 50 0 20 0.000 1 1.5708 5405 4593 16 16 5405 4593 5405 4578
2 3 0 1 0 7 50 0 -1 0.000 0 0 7 0 0 5
	 5485 4403 5314 4403 5314 4575 5485 4575 5485 4403
-6
4 0 0 50 -1 1 7 0.0000 4 75 180 5310 4762 End\001
-6
-6
6 4575 4875 5400 5025
4 0 0 50 -1 -1 9 0.0000 4 90 720 4635 5008 General Line\001
-6
6 3075 4800 3750 5100
4 0 0 50 -1 -1 9 0.0000 4 120 600 3112 5065 Line (R-H)\001
4 0 0 50 -1 -1 9 0.0000 4 90 615 3105 4915 Two-Faced\001
-6
6 5475 10950 6300 12000
6 5625 10950 6150 11550
6 5625 10950 6150 11550
6 5925 11025 6150 11550
6 5925 11025 6150 11250
1 3 0 1 0 0 50 0 20 0.000 1 0.0000 6017 11217 16 16 6017 11217 6017 11233
2 3 0 1 0 7 50 0 -1 0.000 0 0 7 0 0 5
	 5931 11197 6103 11197 6103 11026 5931 11026 5931 11197
-6
6 5925 11325 6150 11550
1 3 0 1 0 0 50 0 20 0.000 1 0.0000 6017 11525 16 16 6017 11525 6017 11541
2 3 0 1 0 7 50 0 -1 0.000 0 0 7 0 0 5
	 5931 11505 6103 11505 6103 11334 5931 11334 5931 11505
-6
-6
6 5625 10950 5850 11550
6 5625 11250 5850 11550
1 3 0 1 0 0 50 0 20 0.000 1 0.0000 5749 11318 16 16 5749 11318 5749 11302
2 3 0 1 0 7 50 0 -1 0.000 0 0 7 0 0 5
	 5834 11337 5663 11337 5663 11509 5834 11509 5834 11337
-6
6 5625 10950 5850 11250
1 3 0 1 0 0 50 0 20 0.000 1 0.0000 5749 11010 16 16 5749 11010 5749 10994
2 3 0 1 0 7 50 0 -1 0.000 0 0 7 0 0 5
	 5834 11029 5663 11029 5663 11201 5834 11201 5834 11029
-6
-6
-6
-6
4 0 0 50 -1 -1 9 0.0000 4 120 315 5730 11925 (R-H)\001
4 0 0 50 -1 -1 9 0.0000 4 90 795 5490 11775 Box Circulate\001
-6
6 7800 7500 8625 8250
6 7800 7500 8475 8250
6 8059 7508 8230 8026
6 8059 7815 8230 8026
1 3 0 1 0 0 50 0 20 0.000 1 1.5708 8145 7834 16 16 8145 7834 8145 7819
2 3 0 1 0 7 50 0 -1 0.000 0 0 7 0 0 5
	 8230 7853 8059 7853 8059 8026 8230 8026 8230 7853
-6
6 8059 7508 8230 7718
1 3 0 1 0 0 50 0 20 0.000 1 1.5708 8145 7526 16 16 8145 7526 8145 7511
2 3 0 1 0 7 50 0 -1 0.000 0 0 7 0 0 5
	 8230 7545 8059 7545 8059 7718 8230 7718 8230 7545
-6
-6
4 0 0 50 -1 -1 9 0.0000 4 90 450 7852 8250 Tandem\001
-6
4 0 0 50 -1 1 7 0.0000 4 75 315 8287 7650 Leader\001
4 0 0 50 -1 1 7 0.0000 4 75 315 8287 7950 Trailer\001
-6
6 7050 8550 7725 9900
6 7087 9525 7687 9900
4 0 0 50 -1 -1 9 0.0000 4 90 525 7124 9686 Diamond\001
4 0 0 50 -1 -1 9 0.0000 4 120 315 7229 9825 (R-H)\001
-6
6 7146 8574 7605 9476
6 7146 8903 7605 9148
6 7434 8940 7605 9148
1 3 0 1 0 0 50 0 20 0.000 1 4.7124 7519 9131 16 16 7519 9131 7519 9147
2 3 0 1 0 7 50 0 -1 0.000 0 0 7 0 0 5
	 7434 9111 7605 9111 7605 8940 7434 8940 7434 9111
-6
6 7146 8903 7317 9112
1 3 0 1 0 0 50 0 20 0.000 1 1.5708 7232 8921 16 16 7232 8921 7232 8905
2 3 0 1 0 7 50 0 -1 0.000 0 0 7 0 0 5
	 7317 8941 7146 8941 7146 9112 7317 9112 7317 8941
-6
-6
6 7295 8574 7504 8746
1 3 0 1 0 0 50 0 20 0.000 0 -0.0000 7486 8659 16 16 7486 8659 7502 8659
2 3 0 1 0 7 50 0 -1 0.000 0 0 7 0 0 5
	 7466 8574 7466 8746 7295 8746 7295 8574 7466 8574
-6
6 7269 9304 7478 9476
1 3 0 1 0 0 50 0 20 0.000 1 3.1416 7287 9389 16 16 7287 9389 7271 9389
2 3 0 1 0 7 50 0 -1 0.000 0 0 7 0 0 5
	 7307 9304 7307 9476 7478 9476 7478 9304 7307 9304
-6
-6
-6
6 7875 8567 8970 9900
6 7875 9525 8850 9900
4 0 0 50 -1 -1 9 0.0000 4 120 390 8167 9686 Facing\001
4 0 0 50 -1 -1 9 0.0000 4 120 870 7927 9825 Diamond (R-H)\001
-6
6 8100 8567 8970 9450
6 8202 8567 8715 8739
6 8202 8567 8411 8739
1 3 0 1 0 0 50 0 20 0.000 1 3.1416 8220 8653 16 16 8220 8653 8204 8653
2 3 0 1 0 7 50 0 -1 0.000 0 0 7 0 0 5
	 8240 8567 8240 8739 8411 8739 8411 8567 8240 8567
-6
4 0 0 50 -1 1 7 0.0000 4 75 240 8475 8690 Point\001
-6
6 8100 8881 8970 9126
6 8100 8881 8559 9126
6 8388 8918 8559 9126
1 3 0 1 0 0 50 0 20 0.000 1 4.7124 8473 9108 16 16 8473 9108 8473 9125
2 3 0 1 0 7 50 0 -1 0.000 0 0 7 0 0 5
	 8388 9089 8559 9089 8559 8918 8388 8918 8388 9089
-6
6 8100 8881 8271 9090
1 3 0 1 0 0 50 0 20 0.000 1 1.5708 8186 8899 16 16 8186 8899 8186 8883
2 3 0 1 0 7 50 0 -1 0.000 0 0 7 0 0 5
	 8271 8919 8100 8919 8100 9090 8271 9090 8271 8919
-6
-6
4 0 0 50 -1 1 7 0.0000 4 75 345 8625 9041 Centers\001
-6
6 8234 9277 8715 9450
6 8234 9277 8443 9450
1 3 0 1 0 0 50 0 20 0.000 0 -0.0000 8425 9363 16 16 8425 9363 8441 9363
2 3 0 1 0 7 50 0 -1 0.000 0 0 7 0 0 5
	 8405 9277 8405 9450 8234 9450 8234 9277 8405 9277
-6
4 0 0 50 -1 1 7 0.0000 4 75 240 8475 9401 Point\001
-6
-6
-6
2 2 0 1 0 7 50 -1 -1 0.000 0 0 7 0 0 5
	 900 2400 9300 2400 9300 5325 900 5325 900 2400
2 2 0 1 0 7 50 -1 -1 0.000 0 0 7 0 0 5
	 900 5325 6675 5325 6675 12300 900 12300 900 5325
2 2 0 1 0 7 50 -1 -1 0.000 0 0 7 0 0 5
	 6675 5325 9300 5325 9300 12300 6675 12300 6675 5325
2 2 0 2 0 7 50 -1 -1 0.000 0 0 -1 0 0 5
	 9300 12300 7725 12300 7725 10350 9300 10350 9300 12300
2 1 1 1 0 7 50 -1 -1 4.000 0 0 -1 0 0 2
	 3225 11025 4125 11025
4 0 0 50 -1 2 12 0.0000 4 135 630 1200 2775 Week 1\001
4 0 0 50 -1 -1 9 0.0000 4 90 630 4860 4079 Promenade\001
4 0 0 50 -1 2 12 0.0000 4 135 630 1200 8775 Week 5\001
4 0 0 50 -1 2 12 0.0000 4 135 630 1200 5655 Week 3\001
4 0 0 50 -1 2 12 0.0000 4 135 630 6900 5625 Week 7\001
4 0 0 50 -1 2 12 0.0000 4 135 630 1200 7275 Week 4\001
4 0 0 50 -1 -1 9 0.0000 4 120 420 7245 3667 Couple\001
4 0 0 50 -1 -1 9 0.0000 4 90 885 1395 5025 One-Faced Line\001
4 0 0 50 -1 2 12 0.0000 4 135 630 6900 8400 Week 9\001
4 0 0 50 -1 2 12 0.0000 4 135 720 6900 10350 Week 10\001
4 0 0 50 -1 2 12 0.0000 4 135 630 6900 7575 Week 8\001
